[
  {
    "id": 23,
    "type": "build",
    "name": "Tenrox-R1_1235",
    "owner": "",
    "timeStart": "",
    "state": "Pending",
    "metrics": {
      "state": "",
      "progress": "0",
      "trends": {
        "test": { "trend": "up", "value": 45 },
        "maintainability": { "trend": "down", "value": 77 },
        "security": { "trend": "same", "value": 88 },
        "workmanship": { "trend": "same", "value": 99 }
      }
    },
    "build": {
      "state": "",
      "progress": "0"
    },
    "unitTest": {
      "state": "",
      "progress": "0"
    },
    "functionalTest": {
      "state": "",
      "progress": "0"
    }
  }, {
    "id": 24,
    "type": "firewall",
    "name": "432462",
    "owner": "jtuck",
    "timeStart": "4/18/2014 12:12pm",
    "state": "Running",
    "metrics": {
      "state": "running",
      "progress": "70%",
      "trends": {
        "test": { "trend": "up", "value": 45 },
        "maintainability": { "trend": "down", "value": 77 },
        "security": { "trend": "same", "value": 88 },
        "workmanship": { "trend": "same", "value": 99 }
      }
    },
    "build": {
      "state": "",
      "progress": "0"
    },
    "unitTest": {
      "state": "",
      "progress": "0"
    },
    "functionalTest": {
      "state": "",
      "progress": "0"
    }
  }, {
    "id": 25,
    "type": "firewall",
    "name": "432461",
    "owner": "samy",
    "timeStart": "4/18/2014 10:53am",
    "state": "Rejected",
    "metrics": {
      "state": "rejected",
      "progress": "100%",
      "trends": {
        "test": { "trend": "up", "value": 45 },
        "maintainability": { "trend": "down", "value": 77 },
        "security": { "trend": "same", "value": 88 },
        "workmanship": { "trend": "same", "value": 99 }
      }
    },
    "build": {
      "state": "rejected",
      "progress": "100%"
    },
    "unitTest": {
      "state": "rejected",
      "progress": "100%"
    },
    "functionalTest": {
      "state": "rejected",
      "progress": "100%"
    }
  }, {
    "id": 26,
    "type": "build",
    "name": "Tenrox-R1_1234",
    "owner": "",
    "timeStart": "4/18/2014 10:53am",
    "state": "Complete",
    "metrics": {
      "state": "complete",
      "progress": "100%",
      "trends": {
        "test": { "trend": "up", "value": 45 },
        "maintainability": { "trend": "down", "value": 77 },
        "security": { "trend": "same", "value": 88 },
        "workmanship": { "trend": "same", "value": 99 }
      }
    },
    "build": {
      "state": "complete",
      "progress": "100%"
    },
    "unitTest": {
      "state": "complete",
      "progress": "100%"
    },
    "functionalTest": {
      "state": "complete",
      "progress": "100%"
    }
  }, {
    "id": 27,
    "type": "firewall",
    "name": "432460",
    "owner": "samy",
    "timeStart": "4/17/2014 7:51am",
    "state": "Rejected",
    "metrics": {
      "state": "rejected",
      "progress": "100%",
      "trends": {
        "test": { "trend": "up", "value": 45 },
        "maintainability": { "trend": "down", "value": 77 },
        "security": { "trend": "same", "value": 88 },
        "workmanship": { "trend": "same", "value": 99 }
      }
    },
    "build": {
      "state": "",
      "progress": "0"
    },
    "unitTest": {
      "state": "",
      "progress": "0"
    },
    "functionalTest": {
      "state": "",
      "progress": "0"
    }
  }, {
    "id": 28,
    "type": "firewall",
    "name": "432459",
    "owner": "samy",
    "timeStart": "4/17/2014 7:51am",
    "state": "Accepted",
    "metrics": {
      "state": "complete",
      "progress": "100%",
      "trends": {
        "test": { "trend": "up", "value": 45 },
        "maintainability": { "trend": "down", "value": 77 },
        "security": { "trend": "same", "value": 88 },
        "workmanship": { "trend": "same", "value": 99 }
      }
    },
    "build": {
      "state": "complete",
      "progress": "100%"
    },
    "unitTest": {
      "state": "complete",
      "progress": "100%"
    },
    "functionalTest": {
      "state": "complete",
      "progress": "100%"
    }
  }
]
